148 1909
45998909 46298909 980205 1118628 1029587 21 243513.938500 0.701378
46298910 46598910 978005 1115655 1027492 21 247192.390900 0.695498
46598911 46898911 978036 1343560 1232610 20 281693.330500 -1.000000
46898912 47198912 978008 1323480 1215137 21 291450.612000 0.697846
47198913 47498913 977971 1307057 1200524 20 273699.527500 -1.000000
47498914 47798914 978034 1290893 1186883 21 283532.045000 0.698002
47798915 48098915 977968 1272834 1171024 21 279989.593000 -1.000000
48098916 48398916 978005 1272170 1169979 20 266043.796500 0.700168
48398917 48698917 978035 1300443 1194828 21 286161.585000 -1.000000
48698918 48998918 978007 1289236 1184562 20 270381.895500 0.698980
48998919 49298919 977968 1281973 1178651 21 281575.683000 -1.000000
49298920 49598920 978034 1270014 1167677 21 279199.705000 0.700216
49598921 49898921 978003 1262920 1161797 20 263937.310000 -1.000000
49898922 50198922 978031 1252163 1153003 21 274925.754500 0.702636
50198923 50498923 975977 1240305 1142510 20 259823.361000 -1.000000
50498924 50798924 978007 1235832 1138995 21 270790.263000 0.703354
50798925 51098925 978032 1224263 1128438 20 255800.653500 -1.000000
51098926 51398926 978007 1214156 1120615 21 265873.051000 0.704577
51398927 51698927 978009 1203734 1110925 21 263899.889000 -1.000000
51698928 51998928 978035 1197098 1105557 20 249736.336000 0.705216
51998929 52298929 978008 1188227 1097273 21 260611.072500 -1.000000
52298930 52598930 978006 1183527 1093015 20 246612.897500 0.707008
52598931 52898931 978034 1175706 1086628 21 257270.597000 -1.000000
52898932 53198932 978008 1172607 1084084 21 255734.730000 0.707512
53198933 53498933 978035 1164881 1077204 20 242046.790000 -1.000000
53498934 53798934 978006 1160668 1073711 21 253810.097000 0.705967
53798935 54098935 977972 1176250 1087400 20 244911.967000 -1.000000
54098936 54398936 978033 1166745 1078565 21 254891.101500 0.707138
54398937 54698937 976316 1158976 1072028 20 240986.629000 -1.000000
54698938 54998938 978008 1151787 1065229 21 251235.953000 0.708710
54998939 55298939 978033 1144116 1058744 21 249781.886500 -1.000000
55298940 55598940 978010 1126254 1043397 20 233725.214500 0.708322
55598941 55898941 978004 1137295 1052987 21 248004.609000 -1.000000
55898942 56198942 978036 1129343 1045993 20 234834.085000 0.712117
56198943 56498943 978008 1122453 1040251 21 244758.578000 -1.000000
56498944 56798944 978011 1115644 1033876 21 243081.603500 0.709649
56798945 57098945 978030 1107987 1027251 20 229913.339000 -1.000000
57098946 57398946 978007 1099636 1020042 21 239691.135000 0.709973
57398947 57698947 978033 1094191 1015000 20 226882.412000 -1.000000
57698948 57998948 977993 1089406 1011402 21 236552.551000 0.712486
57998949 58298949 978006 1078543 1001635 21 234814.891000 -1.000000
58298950 58598950 978031 1072811 996347 20 222082.969000 0.710804
58598951 58898951 978004 1063986 988904 21 231437.289500 -1.000000
58898952 59198952 977972 1059011 984374 20 218834.156000 0.714904
59198953 59498953 978030 1052888 978902 21 228725.444000 -1.000000
59498954 59798954 977994 1047279 974020 21 227362.518000 0.713967
59798955 60098955 977998 1041248 968389 20 215082.932000 -1.000000
60098956 60398956 978036 1034992 963107 21 224423.170000 0.714110
60398957 60698957 978007 1026808 955621 20 212284.868000 -1.000000
60698958 60998958 978030 1033635 962245 21 224869.415500 0.714816
60998959 61298959 978009 1046921 973712 20 216214.698000 -1.000000
61298960 61598960 977970 1039345 967062 21 225538.278000 0.714134
61598961 61898961 978035 1031757 960231 21 223972.892000 -1.000000
61898962 62198962 978008 1026913 956475 20 211934.531000 0.714478
62198963 62498963 978007 1018055 948182 21 221015.398000 -1.000000
62498964 62798964 977999 1014462 945352 20 209154.905500 0.716695
62798965 63098965 978006 1006830 938498 21 218077.520000 -1.000000
63098966 63398966 978011 999089 931731 21 216595.576500 0.716764
63398967 63698967 978036 994826 927654 20 204923.523500 -1.000000
63698968 63998968 978005 990427 924107 21 213792.051000 0.716982
63998969 64298969 978038 982748 917284 20 202529.850500 -1.000000
64298970 64598970 978010 975828 910581 21 211361.595000 0.715527
64598971 64898971 977973 970482 905561 21 209892.009000 -1.000000
64898972 65198972 978038 964750 900852 20 198614.049500 0.717415
65198973 65498973 978005 956160 893088 21 207287.383000 -1.000000
65498974 65798974 978010 953074 890859 20 196112.616500 0.719568
65798975 66098975 978034 946760 884795 21 204593.848000 -1.000000
66098976 66398976 978007 941610 880474 21 203355.598000 0.719121
66398977 66698977 978001 935440 874798 20 192542.977000 -1.000000
66698978 66998978 978037 931422 871162 21 201189.286500 0.720646
66998979 67298979 978007 927142 867240 20 190474.480000 -1.000000
67298980 67598980 978032 919959 861416 21 198576.892000 0.721325
67598981 67898981 978006 911632 853477 20 187233.528000 -1.000000
67898982 68198982 978008 907764 850098 21 195452.228000 0.722729
68198983 68498983 978032 900825 843870 21 194320.121500 -1.000000
68498984 68798984 978008 896023 839381 20 183999.703000 0.722236
68798985 69098985 978002 891897 835650 21 192015.947000 -1.000000
69098986 69398986 978036 887285 831502 20 181798.225000 0.722948
69398987 69698987 978006 872213 818335 21 188134.881000 -1.000000
69698988 69998988 978011 882751 827662 21 190152.882000 0.722411
69998989 70298989 978035 879914 825507 20 180098.041000 -1.000000
70298990 70598990 978007 873246 819974 21 188058.466000 0.724284
70598991 70898991 978034 869563 817666 20 178052.847500 -1.000000
70898992 71198992 978007 863165 811278 21 185903.115000 0.725574
71198993 71498993 978007 860126 808380 21 184865.112000 -1.000000
71498994 71798994 978032 854475 803466 20 175028.666000 0.724885
71798995 72098995 978008 850399 799763 21 182667.502000 -1.000000
72098996 72398996 978009 844219 794204 20 172932.806000 0.725255
72398997 72698997 978032 839938 790207 21 180658.752000 -1.000000
72698998 72998998 978006 835841 786676 21 179804.963000 0.725263
72998999 73298999 973818 827564 779418 20 170325.390000 -1.000000
73299000 73599000 977996 828210 780010 21 177950.900500 0.726331
73599001 73899001 977947 823635 775793 20 168461.169000 -1.000000
73899002 74199002 977984 817547 770208 21 175985.386500 0.728103
74199003 74499003 977996 814389 767212 20 166708.980000 -1.000000
74499004 74799004 977996 810675 763878 21 174065.044500 0.727074
74799005 75099005 978016 811331 764514 21 174060.446800 -1.000000
75099006 75399006 977986 784994 740979 20 160095.294600 0.727295
75399007 75699007 978024 786422 741789 21 169028.467300 -1.000000
75699008 75999008 978000 783244 739171 20 160079.030100 0.728152
75999009 76299009 977926 780700 736970 21 167221.173300 -1.000000
76299010 76599010 978024 776855 733450 21 166314.244000 0.727971
76599011 76899011 977994 771835 728998 20 157499.203000 -1.000000
76899012 77199012 977996 766890 724547 21 164433.584300 0.730190
77199013 77499013 978023 762894 720855 20 155714.653500 -1.000000
77499014 77799014 977954 759571 717503 21 162609.523000 0.731811
77799015 78099015 977992 756019 714191 21 161702.935100 -1.000000
78099016 78399016 978020 751715 710587 20 153148.088200 0.731212
78399017 78699017 977995 742776 702593 21 158899.713700 -1.000000
78699018 78999018 978013 736812 696730 20 150379.936100 0.729480
78999019 79299019 977996 732591 692732 21 157046.249900 -1.000000
79299020 79599020 977958 730584 691266 21 156254.132800 0.732154
79599021 79899021 978025 727332 688406 20 148054.124000 -1.000000
79899022 80199022 977993 722825 684364 21 154510.352200 0.732809
80199023 80499023 977994 717069 679127 20 146086.741300 -1.000000
80499024 80799024 977983 713525 675942 21 152588.620600 0.733687
80799025 81099025 977990 709914 672696 20 144533.982900 -1.000000
81099026 81399026 977995 707924 670775 21 151059.498400 0.734213
81399027 81699027 978023 702832 665948 21 150291.037200 -1.000000
81699028 81999028 977992 699143 662728 20 142451.084200 0.733224
81999029 82299029 978020 696707 660424 21 148883.363200 -1.000000
82299030 82599030 977996 693126 657177 20 141080.281600 0.733751
82599031 82899031 977959 690445 655028 21 147374.288400 -1.000000
82899032 83199032 978021 688563 653235 21 146694.947700 0.734451
83199033 83499033 977951 685565 650549 20 139051.968200 -1.000000
83499034 83799034 977995 681670 646861 21 145276.738000 0.733755
83799035 84099035 978022 677971 643371 20 137739.285800 -1.000000
84099036 84399036 977990 673083 638964 21 143886.727700 0.734546
84399037 84699037 977988 671703 637579 21 143019.078100 -1.000000
84699038 84999038 977989 663675 629957 20 134996.035500 0.734531
84999039 85299039 977997 659826 626832 21 140885.364200 -1.000000
85299040 85599040 978031 657771 624783 20 133498.535700 0.737460
85599041 85899041 977989 655611 622783 21 139528.325700 -1.000000
85899042 86199042 977957 651734 619167 21 138868.450200 0.736420
86199043 86499043 977991 648782 616641 20 131645.193500 -1.000000
86499044 86799044 977949 646774 614944 21 137603.480600 0.734647
86799045 87099045 977977 642521 610846 20 130464.129600 -1.000000
87099046 87399046 978020 638922 607475 21 136380.281000 0.736293
87399047 87699047 977983 638026 606701 20 129261.703100 -1.000000
87699048 87999048 977970 635449 604406 21 135094.215100 0.736534
87999049 88299049 978000 631305 600518 21 134492.264200 -1.000000
88299050 88599050 978005 629065 598407 20 127464.201600 0.736171
88599051 88899051 978038 625543 595042 21 133069.494900 -1.000000
88899052 89199052 978009 621790 591433 20 126158.646500 0.739292
89199053 89499053 977997 619584 589857 21 131819.722200 -1.000000
89499054 89799054 978038 579160 551557 21 121194.269430 0.741166
89799055 90099055 978008 429446 410757 20 88407.739100 -1.000000
90099056 90162459 206714 91652 87189 3 18646.828200 -1.000000
